…
## Installation

``` r
devtools::install_github('murrayjw/nbapalettes')
```

## Usage

``` r
library("nbapalettes")

# See available palettes
available_palettes()
#> # A tibble: 129 x 3
#>    teams   palette_names     palette_colors                                     
#>    <chr>   <chr>             <chr>                                              
#>  1 bobcats bobcats           #0C2340, #418FDE, #1B365D, #E35205, #888B8D        
#>  2 bobcats bobcats_original  #F9423A, #1B365D, #8D9093, #010101                 
#>  3 blazers blazers           #E13A3E, #C4CED4, #000000                          
#>  4 blazers blazers_statement #C8102E, #010101, #373A36                          
#>  5 blazers blazers_city      #fea30c, #203b7e, #0881c6, #cf152d, #df4826        
#>  6 blazers blazers_city2     #2E2E2E, #140C0B, #C72830, #EC3036                 
#>  7 bucks   bucks             #00471B, #EEE1C6, #0077C0, #000000                 
#>  8 bucks   bucks_earned      #7AC043, #00713D, #014711, #CB0423, #D7D7D7, #FFFF~
#>  9 bucks   bucks_00s         #AC1A2F, #274E37, #95999D                          
#> 10 bucks   bucks_retro       #2C5234, #00843D, #6CC24A, #DE7C00, #010101        
#> # ... with 119 more rows
```
…
